<svg width="450" height="856" viewBox="0 0 450 856" fill="none" xmlns="http://www.w3.org/2000/svg">
<g opacity="0.03">
<path d="M299.738 248.192L273.514 203.066L276.136 261.635L299.738 248.192Z" fill="black"/>
<path fill-rule="evenodd" clip-rule="evenodd" d="M220.192 233.439L246.416 278.565L276.136 261.635L273.514 203.066L220.192 233.439ZM234.178 275.093L216.696 244.72L179.108 266.415L196.591 296.788L234.178 275.093ZM152.885 291.582L161.626 306.334L184.353 293.317L175.612 278.565L152.885 291.582ZM240.297 286.375L237.675 282.904L200.087 304.599L202.71 308.07C204.458 310.673 207.08 313.277 209.703 315.012L195.717 355.799H213.199L225.437 318.483H226.311L239.423 355.799H256.906L240.297 307.202C244.668 301.127 244.668 293.317 240.297 286.375Z" fill="#ACACAC"/>
<path d="M322.421 243.563L307.561 252.241L272.596 192.363L287.456 183.685L322.421 243.563Z" fill="black"/>
<mask id="path-2-outside-1_32_67" maskUnits="userSpaceOnUse" x="43.1538" y="98.1362" width="361" height="289" fill="black">
<rect fill="white" x="43.1538" y="98.1362" width="361" height="289"/>
<path d="M225 104.186C225.49 104.202 225.98 104.223 226.469 104.249C225.981 104.207 225.491 104.186 225 104.186Z"/>
</mask>
<path d="M222.115 101.252C220.522 101.252 219.231 102.543 219.231 104.136C219.231 105.729 220.522 107.021 222.115 107.021V101.252ZM224.901 107.069C226.493 107.123 227.828 105.877 227.883 104.284C227.937 102.692 226.691 101.357 225.099 101.303L224.901 107.069ZM226.469 104.249L226.618 101.368L226.222 107.123L226.469 104.249ZM311.803 360.238C311.059 361.646 311.598 363.391 313.007 364.135C314.416 364.879 316.161 364.34 316.905 362.931L311.803 360.238ZM263.701 360.917C263.333 362.467 264.291 364.022 265.841 364.391C267.391 364.759 268.946 363.801 269.314 362.251L263.701 360.917ZM49.0384 279.755C49.0384 184.663 126.69 107.473 222.712 107.023L222.685 101.254C123.543 101.719 43.2692 181.431 43.2692 279.755H49.0384ZM222.712 107.023C222.994 107.022 223.276 107.021 223.558 107.021V101.252C223.267 101.252 222.976 101.252 222.685 101.254L222.712 107.023ZM223.558 107.021C319.97 107.021 398.077 184.384 398.077 279.755H403.846C403.846 181.143 323.101 101.252 223.558 101.252V107.021ZM80.8967 383.094C60.7333 353.692 49.0384 317.806 49.0384 279.755H43.2692C43.2692 318.992 55.3286 356.012 76.1388 386.357L80.8967 383.094ZM398.077 279.755C398.077 317.727 384.969 353.584 363.061 383.003L367.688 386.448C390.274 356.12 403.846 319.072 403.846 279.755H398.077ZM222.115 107.021C222.303 107.021 222.491 107.021 222.679 107.023L222.719 101.254C222.518 101.252 222.317 101.252 222.115 101.252V107.021ZM222.679 107.023C223.421 107.028 224.162 107.043 224.901 107.069L225.099 101.303C224.307 101.276 223.514 101.259 222.719 101.254L222.679 107.023ZM226.32 107.13C256.05 108.67 283.069 126.526 302.752 154.991C322.429 183.445 334.615 222.316 334.615 265.271H340.385C340.385 221.27 327.909 181.227 307.498 151.709C287.092 122.201 258.596 103.025 226.618 101.368L226.32 107.13ZM334.615 265.271C334.615 300.268 326.049 333.251 311.803 360.238L316.905 362.931C331.598 335.098 340.385 301.188 340.385 265.271H334.615ZM226.222 107.123C231.999 107.621 237.989 111.726 243.824 119.814C249.619 127.845 254.936 139.378 259.443 153.728C268.448 182.403 274.038 221.751 274.038 265.271H279.808C279.808 221.323 274.17 181.367 264.947 152C260.34 137.33 254.794 125.158 248.503 116.438C242.253 107.775 234.938 102.083 226.717 101.375L226.222 107.123ZM274.038 265.271C274.038 300.53 270.154 333.751 263.701 360.917L269.314 362.251C275.883 334.598 279.808 300.926 279.808 265.271H274.038ZM225 104.186V98.4164L224.802 109.951L225 104.186ZM226.469 104.249L226.171 110.01L226.964 98.5009L226.469 104.249ZM224.802 109.951C225.259 109.967 225.715 109.987 226.171 110.01L226.768 98.4873C226.245 98.4602 225.722 98.4377 225.198 98.4198L224.802 109.951ZM225 109.955C225.325 109.955 225.65 109.969 225.974 109.997L226.964 98.5009C226.312 98.4447 225.657 98.4164 225 98.4164V109.955Z" fill="black" mask="url(#path-2-outside-1_32_67)"/>
<path fill-rule="evenodd" clip-rule="evenodd" d="M225 760.773C180.944 760.773 141.871 751.814 107.78 733.896C74.2133 715.261 47.7273 689.458 28.3217 656.488C9.44056 623.518 0 585.89 0 543.602C0 500.598 11.2762 462.611 33.8287 429.641C56.9056 396.671 87.8497 373.377 126.661 359.759C158.571 348.562 196.678 350.083 225 350.083C252.797 350.083 297.857 350.818 323.339 359.759C362.15 373.377 392.832 396.671 415.385 429.641C438.462 462.611 450 500.598 450 543.602C450 585.89 440.297 623.518 420.892 656.488C402.011 689.458 375.525 715.261 341.434 733.896C307.343 751.814 268.531 760.773 225 760.773ZM304.458 666.164C280.857 679.065 254.371 685.516 225 685.516C195.105 685.516 168.357 679.065 144.755 666.164C121.154 652.546 102.535 633.553 88.8986 609.183C75.7867 584.814 69.2308 557.578 69.2308 527.475C69.2308 497.373 75.7867 470.495 88.8986 446.843C102.535 423.19 121.154 404.913 144.755 392.012C168.357 378.394 195.105 371.585 225 371.585C254.371 371.585 280.857 378.394 304.458 392.012C328.059 404.913 346.416 423.19 359.528 446.843C373.164 470.495 379.983 497.373 379.983 527.475C379.983 557.578 373.164 584.814 359.528 609.183C346.416 633.553 328.059 652.546 304.458 666.164Z" fill="#202020"/>
</g>
<path opacity="0.05" d="M102.945 838.272H125.593V844.807H95.8459V801.989H102.945V838.272ZM159.51 801.989H167.06L155.116 834.553C152.524 841.765 148.242 845.371 142.27 845.371C135.847 845.371 131.566 841.202 131.566 835.004C131.566 831.398 133.03 828.243 135.735 826.215H140.355L126.946 801.989H134.946L147.679 826.215H151.172L159.51 801.989ZM142.496 839.399C145.313 839.399 147.003 837.709 148.355 834.215L149.256 831.624H139.34C138.552 832.525 138.101 833.652 138.101 834.892C138.101 837.709 139.791 839.399 142.496 839.399ZM189.596 845.371C177.426 845.371 169.313 836.694 169.313 823.398C169.313 810.44 177.652 801.425 189.596 801.425C198.498 801.425 205.033 805.933 207.625 814.046L200.977 816.299C199.286 810.553 195.343 807.623 189.596 807.623C181.821 807.623 176.638 813.82 176.638 823.398C176.638 833.201 181.596 839.173 189.596 839.173C195.343 839.173 199.286 836.244 200.977 830.497L207.625 832.751C205.146 840.526 198.498 845.371 189.596 845.371ZM223.287 838.385H246.274V844.807H216.188V801.989H245.711V808.412H223.287V819.68H240.64V825.99H223.287V838.385ZM272.416 845.371C261.373 845.371 254.387 838.61 254.387 827.905V801.989H261.486V827.793C261.486 834.779 265.655 839.061 272.416 839.061C279.177 839.061 283.233 834.779 283.233 827.793V801.989H290.445V827.905C290.445 838.61 283.459 845.371 272.416 845.371ZM350.503 801.989V844.807H343.63V810.102L330.559 844.807H322.784L309.6 809.989V844.807H302.727V801.989H313.657L326.728 836.469L339.686 801.989H350.503Z" fill="#202020"/>
<path d="M130.608 10.168V12.5117L111.638 35.7295H130.608V38H108.781V35.6562L127.751 12.4385H109.587V10.168H130.608ZM156.902 10.168H159.319V38H156.902V24.8164H139.763V38H137.346V10.168H139.763V22.6191H156.902V10.168ZM187.077 10.168H189.568L181.438 32.3604C179.973 36.4619 177.776 38.3662 174.626 38.3662C171.037 38.3662 168.62 36.0225 168.62 32.4336C168.62 30.1631 169.719 28.1855 171.623 26.9404H174.992L164.812 10.168H167.595L177.702 26.9404H180.998L187.077 10.168ZM174.626 36.2422C176.677 36.2422 178.215 34.8506 179.387 31.4814L180.266 28.9912H172.575C171.55 29.5771 170.964 30.8955 170.964 32.4336C170.964 34.7041 172.429 36.2422 174.626 36.2422ZM215.129 10.168V12.4385H204.509V38H202.092V12.4385H191.399V10.168H215.129ZM229.778 38.3662C222.38 38.3662 217.033 32.4336 217.033 24.084C217.033 15.7344 222.38 9.80176 229.778 9.80176C237.175 9.80176 242.522 15.7344 242.522 24.084C242.522 32.4336 237.175 38.3662 229.778 38.3662ZM229.778 36.2422C235.783 36.2422 240.031 31.2617 240.031 24.084C240.031 16.9062 235.783 11.9258 229.778 11.9258C223.772 11.9258 219.524 16.9062 219.524 24.084C219.524 31.2617 223.772 36.2422 229.778 36.2422ZM278.264 10.168V38H275.92V12.585L265.227 38H262.883L252.263 12.8047V38H249.919V10.168H253.728L264.128 34.7773L274.455 10.168H278.264ZM306.023 10.168H308.513L300.383 32.3604C298.918 36.4619 296.721 38.3662 293.572 38.3662C289.983 38.3662 287.566 36.0225 287.566 32.4336C287.566 30.1631 288.664 28.1855 290.569 26.9404H293.938L283.757 10.168H286.54L296.648 26.9404H299.944L306.023 10.168ZM293.572 36.2422C295.622 36.2422 297.16 34.8506 298.332 31.4814L299.211 28.9912H291.521C290.495 29.5771 289.909 30.8955 289.909 32.4336C289.909 34.7041 291.374 36.2422 293.572 36.2422ZM334.953 35.7295H335.759V38H334.66C332.317 38 330.925 36.4619 330.925 33.8252V26.4277H316.863V38H314.372V10.168H325.432C330.705 10.168 334.074 13.2441 334.074 17.9316C334.074 21.0811 332.463 23.4248 329.826 24.5967H333.342V34.1182C333.342 35.0703 334.001 35.7295 334.953 35.7295ZM325.432 12.292H316.863V24.3037H324.187C328.508 24.3037 331.584 21.667 331.584 17.9316C331.584 14.416 329.314 12.292 325.432 12.292Z" fill="#CECECE"/>
</svg>
